%YAML 1.1
%TAG !u! tag:unity3d.com,2011:
--- !u!21 &2100000
Material:
  serializedVersion: 6
  m_ObjectHideFlags: 0
  m_CorrespondingSourceObject: {fileID: 0}
  m_PrefabInstance: {fileID: 0}
  m_PrefabAsset: {fileID: 0}
  m_Name: Monster_00
  m_Shader: {fileID: 4800000, guid: a810799a8efa7f34fb4eb3491f69ad8d, type: 3}
  m_ShaderKeywords: 
  m_LightmapFlags: 4
  m_EnableInstancingVariants: 0
  m_DoubleSidedGI: 0
  m_CustomRenderQueue: -1
  stringTagMap: {}
  disabledShaderPasses: []
  m_SavedProperties:
    serializedVersion: 3
    m_TexEnvs:
    - _BumpMap:
        m_Texture: {fileID: 0}
        m_Scale: {x: 1, y: 1}
        m_Offset: {x: 0, y: 0}
    - _BumpTex:
        m_Texture: {fileID: 0}
        m_Scale: {x: 1, y: 1}
        m_Offset: {x: 0, y: 0}
    - _EmitTex:
        m_Texture: {fileID: 0}
        m_Scale: {x: 1, y: 1}
        m_Offset: {x: 0, y: 0}
    - _MainTex:
        m_Texture: {fileID: 2800000, guid: 9abb4c80a503e154dbf6c85178a3e356, type: 3}
        m_Scale: {x: 1, y: 1}
        m_Offset: {x: 0, y: 0}
    - _MainTex2:
        m_Texture: {fileID: 0}
        m_Scale: {x: 1, y: 1}
        m_Offset: {x: 0, y: 0}
    - _NoiseTex:
        m_Texture: {fileID: 2800000, guid: 4e7e11e9eed9df54f92719f35595815c, type: 3}
        m_Scale: {x: 1, y: 1}
        m_Offset: {x: 0, y: 0}
    m_Floats:
    - _Cut: 1
    - _Cutoff: 0.5
    - _Hide: 1
    - _Metallic: 0
    - _OutThinkness: 1.2
    - _Outline: 0.002
    - _RimAmount: 0.5
    - _RimPow: 0.165
    - _SickButton: 0
    - _SlowButton: 0
    - _Smoothness: 0
    - _SpecularPower: 30
    - _SpecularPower2: 50
    - _ToonLine: 0.166
    - _rimPower: 6
    m_Colors:
    - _AlphaColor: {r: 1, g: 1, b: 1, a: 1}
    - _AmbientColor: {r: 0.53222424, g: 0.4542097, b: 0.5566038, a: 1}
    - _Color: {r: 1, g: 1, b: 1, a: 1}
    - _OutColor: {r: 1.8, g: 0.09, b: 0.15, a: 1}
    - _OutlineColor: {r: 0.5754717, g: 0, b: 0.41927224, a: 1}
    - _RimColor: {r: 1, g: 1, b: 1, a: 1}
    - _SickColor: {r: 0.3301887, g: 0.3301887, b: 0.3301887, a: 1}
    - _SpecularColor: {r: 0, g: 0, b: 0, a: 0}
    - _SpecularColor2: {r: 0.09999997, g: 0.09999997, b: 0.09999997, a: 1}
    - _rimColor: {r: 0.9, g: 0.5, b: 1, a: 1}
