%YAML 1.1
%TAG !u! tag:unity3d.com,2011:
--- !u!21 &2100000
Material:
  serializedVersion: 6
  m_ObjectHideFlags: 0
  m_CorrespondingSourceObject: {fileID: 0}
  m_PrefabInstance: {fileID: 0}
  m_PrefabAsset: {fileID: 0}
  m_Name: Custom_Monster_dissolve_body
  m_Shader: {fileID: 4800000, guid: c65bcc713ca26ee4eb698b13c0a12e4f, type: 3}
  m_ShaderKeywords: 
  m_LightmapFlags: 4
  m_EnableInstancingVariants: 0
  m_DoubleSidedGI: 0
  m_CustomRenderQueue: 3000
  stringTagMap: {}
  disabledShaderPasses: []
  m_SavedProperties:
    serializedVersion: 3
    m_TexEnvs:
    - _MainTex:
        m_Texture: {fileID: 0}
        m_Scale: {x: 1, y: 1}
        m_Offset: {x: 0, y: 0}
    - _NoiseTex:
        m_Texture: {fileID: 2800000, guid: 887a6af80aa3fb249987f327b907a355, type: 3}
        m_Scale: {x: 1, y: 1}
        m_Offset: {x: 0, y: 0}
    m_Floats:
    - _Cutoff: 0.5
    - _Dissolve: 1
    - _Height: 1.9
    - _RimAmount: 0.5
    - _RimPow: 0.165
    - _SickButton: 0
    - _SlowButton: 0
    - _Specular: 1292.8
    - _ToonLine: 0.166
    m_Colors:
    - _Color: {r: 0.09144712, g: 0.10358345, b: 0.14150941, a: 1}
    - _LineColor: {r: 1, g: 1, b: 1, a: 1}
    - _RimColor: {r: 0.5, g: 0, b: 0.5, a: 1}
    - _SickColor: {r: 0.5, g: 0.24999997, b: 0.24999997, a: 1}
    - _SpecColor: {r: 0.45790315, g: 0.501801, b: 0.9245283, a: 1}
    - _SpecularC: {r: 0.5613208, g: 0.6603774, b: 1, a: 1}
